{"items":[{"key":"language","value":"polski"},
    	{"key":"new_game_button","value":"Nowa gra"},
	{"key":"continue_game_button","value":"Kontynuuj Grę"},
	{"key":"load_game_button","value":"Wczytaj Grę"},
	{"key":"no_saves_available","value":"Brak zapisanych gier!"},
	{"key":"highscores_button","value":"Tabela Rekordów"},
	{"key":"options_button","value":"Opcje"},
    	{"key":"quit_button","value":"Wyjdź"},
	{"key":"hide_button","value":"Schowaj"},
	{"key":"retry_button","value":"Ponów Misję"},
    	{"key":"yes_button","value":"Yes"},
    	{"key":"no_button","value":"No"},
    	{"key":"quit_game_button","value":"Wyjdź z gry"},
    	{"key":"game_over_text","value":"Porażka!"},
    	{"key":"save_game_text","value":"Zapisz grę"},
    	{"key":"save_game_text_2","value":"Zapisać grę?"},
    	{"key":"save_game_text_3","value":"Zapisz"},
    	{"key":"save_game_text_4","value":"Gra zapisana!"},
    	{"key":"overwrite_text","value":"Plik już istnieje. Nadpisać?"},
    	{"key":"yes_text","value":"Tak"},
    	{"key":"no_text","value":"Nie"},
    	{"key":"quit_to_main_menu_button","value":"Wyjdź do głównego menu"},
   	{"key":"sound_button","value":"Dźwięk"},
	{"key":"language_button","value":"Język"},
	{"key":"info_button","value":"Info"},
   	{"key":"back_button","value":"Wróc"},
   	{"key":"volume_text","value":"Głośność"},
	{"key":"mute_text","value":"Wycisz"},
	{"key":"english_button","value":"Angielski"},
	{"key":"polish_button","value":"Polski"},
	{"key":"dialogue_continue_button","value":"Dalej..."},
	{"key":"dialogue_stop_button","value":"Przerwij"},
	{"key":"resume_button","value":"Wznów"},
	{"key":"journal_button","value":"Dziennik pokładowy"},
	{"key":"blank","value":""},
	{"key":"score_text","value":"score_text_pl"},
	{"key":"timer_text","value":"timer_text_pl"},
	{"key":"canons_text","value":"canons_text_pl"},
	{"key":"walls_text","value":"walls_text_pl"},
	{"key":"castle_text","value":"castle_text_pl"},
	{"key":"hello_text","value":"hello_text_pl"},
	{"key":"castle_defended","value":"Gratulacje! \r\n Zamek Obroniony!"},
	{"key":"castle_destroyed","value":"Zamek zniszczony! \r\n Porażka!"},
	{"key":"level_1_intro_text_0","value":"Witaj w grze Monster Rampart. \r\n Możesz pominąć tutorial oraz fazę budowy klawiszem Backspace."},
	{"key":"level_1_intro_text_1","value":"Twoim celem jest obrona zamku przed potworami."},
	{"key":"level_1_intro_text_2","value":"Każdy etap składa się z faz budowy, podczas których rozwijasz umocnienia, oraz z faz ataku, gdy bronisz się przed potworami."},
	{"key":"level_1_intro_text_3","value":"Tutaj wybierasz rodzaj murów w trakcie fazy budowy."},
	{"key":"level_1_intro_text_4","value":"A tutaj rodzaj dział. \r\n Nowe struktury obronne będą odblokowywane wraz z postępem w grze."},
	{"key":"level_1_intro_text_5","value":"Rodzaj stawianych murów i dział można wybierać także za pomocą klawiszy 1 - 6."},
	{"key":"level_1_intro_text_6","value":"'Klocki' murów obracać można za pomocą spacji. W każdej chwili można zapauzować grę klawiszem ESC."},
	{"key":"level_1_intro_text_7","value":"Ten licznik ukazuje dostępne złoto, które jest potrzebne do stawiania murów i dział."},
	{"key":"level_1_intro_text_8","value":"A ten informuje ile sekund pozostało do końca fazy budowy. \r\n Powodzenia!"},
	{"key":"level_1_intro_text_9","value":"Nastały mroczne czasy w krainie Fryckolandii. Zły czarnoksiężnik wskrzesił hordy plugawych demonów, by zniszczyć to wspaniałe królestwo. Jako władca krainy musisz stawić mu czoła. Pierwsza bitwa wkrótce się rozpocznie. Pokonaj wszystkie chochliki i zombie nim zdążą wedrzeć się do zamku!"},
	{"key":"level_2_intro_text","value":"Choć odniosłeś pierwszy sukces, nie wolno ci spoczywać na laurach! Czarnoksiężnik wciąż rośnie w siłę i powołuje do swej armii coraz to potężniejsze bestie. Następna bitwa odbędzie się na skraju pustyni stanowiącej południową granicę twojego królestwa. To kraina zasobna w kamień, dzięki czemu będziesz mógł stawić potężniejsze mury. Miejmy nadzieję, że to wystarczy, by zatrzymać duchy i wampiry!"},
	{"key":"level_3_intro_text","value":"Nie zdążyłeś jeszcze odpocząć po obronie południowych granic, a czarnoksiężnik już przeprowadza kolejny atak. Tym razem najechał jałowe wyżyny na północnym wschodzie. Według informacji uzyskanych przez zwiadowców jego armię wsparł zakon mrocznych rycerzy. Na szczęście i ty zdobyłeś nowy oręż. Twoi inżynierowi skonstruowali nowe, potężniejsze działo!"},
	{"key":"level_4_intro_text","value":"Armia czarnoksiężnika wycofała się w celu przegrupowania. Dzięki swym niezawodnym zwiadowcom wiesz, że wkrótce będzie starała się pokonać nieodległą, górską przełęcz, by dostać się w głąb królestwa. Musisz temu zapobiec. Oby ceglane mury oraz nowe, potężne działa wystarczyły do zatrzymania mrocznych czempionów. Uważaj również na olbrzymie nietoperze, które potrafią latać ponad murami. Zniszcz je w pierwszej kolejności!"},
	{"key":"level_5_intro_text","value":"Obrona północnego wschodu zakończyła się sukcesem. Po kilku tygodniach odpoczynku w stolicy ponownie musisz ruszać na południe. Czarnoksiężnik chce zdobyć twierdzę stanowiącą jedyną przeprawę przez graniczną rzekę. Miej się na baczności gdyż pomaga mu sama śmierć!"},
	{"key":"level_6_intro_text","value":"Mroczne wieści, królu! Atak na południu miał jedynie odwrócić uwagę od głównej, ostatecznej ofensywy czarnoksiężnika. Jego plugawe armie pokonały góry na zachodzie i wdarły się w głąb kraju. Z każdą chwilą zbliżają się do stolicy. Jeśli się pospieszymy, zdążymy na jej obronę. Będzie to bitwa, która rozstrzygnie losy wojny. Albo uratujesz swoje królestwo, albo ogarnie je wieczny chaos! Spodziewaj się starcia z najpotężniejszymi bestiami!"},
	{"key":"level_6_final_text","value":"Gratulacje! Pokonałeś złego czarnoksiężnika i obroniłeś swoje królestwo. Teraz wreszcie będziesz miał trochę czasu na swoje ulubione hobby, którym jest czytanie książek. \r\n Kliknij 'Backspace' by wrócić do głównego menu. \r\n Twój wynik to:"},
	{"key":"blaksdjasd","value":"I should have been more careful"}]}