%YAML 1.1
%TAG !u! tag:unity3d.com,2011:
--- !u!114 &11400000
MonoBehaviour:
  m_ObjectHideFlags: 0
  m_CorrespondingSourceObject: {fileID: 0}
  m_PrefabInstance: {fileID: 0}
  m_PrefabAsset: {fileID: 0}
  m_GameObject: {fileID: 0}
  m_Enabled: 1
  m_EditorHideFlags: 0
  m_Script: {fileID: 11500000, guid: f0aec7a4a16452048a91e44799bbfafd, type: 3}
  m_Name: Dark_Knight_30_1
  m_EditorClassIdentifier: 
  monster: {fileID: 2932803998691473526, guid: 7ba44aa483ab0c243a6438a632210eb1, type: 3}
  batchSize: 10
  timeBetweenSpawns: 1
  timeAfterBatchEnds: 3
