%YAML 1.1
%TAG !u! tag:unity3d.com,2011:
--- !u!114 &11400000
MonoBehaviour:
  m_ObjectHideFlags: 0
  m_CorrespondingSourceObject: {fileID: 0}
  m_PrefabInstance: {fileID: 0}
  m_PrefabAsset: {fileID: 0}
  m_GameObject: {fileID: 0}
  m_Enabled: 1
  m_EditorHideFlags: 0
  m_Script: {fileID: 11500000, guid: 8bc57cf96152fe44db0978dff2357ed8, type: 3}
  m_Name: Short-I-shape
  m_EditorClassIdentifier: 
  positions:
  - {x: 0, y: 0}
  - {x: 1, y: 0}
